<?xml version="1.0" encoding="UTF-8" standalone="no"?>
<svg
   xmlns:dc="http://purl.org/dc/elements/1.1/"
   xmlns:cc="http://creativecommons.org/ns#"
   xmlns:rdf="http://www.w3.org/1999/02/22-rdf-syntax-ns#"
   xmlns:svg="http://www.w3.org/2000/svg"
   xmlns="http://www.w3.org/2000/svg"
   xmlns:sodipodi="http://sodipodi.sourceforge.net/DTD/sodipodi-0.dtd"
   xmlns:inkscape="http://www.inkscape.org/namespaces/inkscape"
   version="1.1"
   x="0px"
   y="0px"
   viewBox="0 0 24 30"
   style="enable-background:new 0 0 24 24;"
   xml:space="preserve"
   id="svg18"
   sodipodi:docname="cloud.svg"
   inkscape:version="0.92.3 (2405546, 2018-03-11)"><metadata
     id="metadata24"><rdf:RDF><cc:Work
         rdf:about=""><dc:format>image/svg+xml</dc:format><dc:type
           rdf:resource="http://purl.org/dc/dcmitype/StillImage" /></cc:Work></rdf:RDF></metadata><defs
     id="defs22" /><sodipodi:namedview
     pagecolor="#ffffff"
     bordercolor="#666666"
     borderopacity="1"
     objecttolerance="10"
     gridtolerance="10"
     guidetolerance="10"
     inkscape:pageopacity="0"
     inkscape:pageshadow="2"
     inkscape:window-width="1652"
     inkscape:window-height="1010"
     id="namedview20"
     showgrid="false"
     inkscape:zoom="7.8666667"
     inkscape:cx="12"
     inkscape:cy="15"
     inkscape:window-x="0"
     inkscape:window-y="0"
     inkscape:window-maximized="0"
     inkscape:current-layer="svg18" /><style
     type="text/css"
     id="style2">
	.st0{fill:#231F20;}
</style><g
     id="g12"><g
       id="g6"><path
         d="M24,10.2c0,2.5-1.7,4.6-4,5.4V14c0-0.8-0.3-1.6-0.9-2.1l-3-3C15.5,8.3,14.8,8,14,8H7c-1.7,0-3,1.4-3,3v4.7    c-2.3-0.8-4-2.9-4-5.4C0,7.9,1.5,5.9,3.7,5c0.3-2.8,2.7-5,5.7-5c1.8,0,3.5,0.8,4.6,2.2c2.6-1.7,6-0.1,6.4,2.8    C22.5,5.9,24,7.9,24,10.2z"
         id="path4" /></g><g
       id="g10"><path
         d="M17.7,13.3l-3-3C14.5,10.1,14.3,10,14,10H7c-0.6,0-1,0.5-1,1v12c0,0.5,0.4,1,1,1h10c0.6,0,1-0.5,1-1v-9    C18,13.7,17.9,13.5,17.7,13.3z M14,22H8v-2h6V22z M15,18H8v-2h7V18z M15,14H8v-2h7V14z"
         id="path8" /></g></g></svg>