<?xml version="1.0" encoding="UTF-8" standalone="no"?>
<svg
   xmlns:dc="http://purl.org/dc/elements/1.1/"
   xmlns:cc="http://creativecommons.org/ns#"
   xmlns:rdf="http://www.w3.org/1999/02/22-rdf-syntax-ns#"
   xmlns:svg="http://www.w3.org/2000/svg"
   xmlns="http://www.w3.org/2000/svg"
   xmlns:sodipodi="http://sodipodi.sourceforge.net/DTD/sodipodi-0.dtd"
   xmlns:inkscape="http://www.inkscape.org/namespaces/inkscape"
   version="1.0"
   x="0px"
   y="0px"
   viewBox="0 0 100 125"
   enable-background="new 0 0 100 100"
   xml:space="preserve"
   id="svg12"
   sodipodi:docname="decision.svg"
   inkscape:version="0.92.3 (2405546, 2018-03-11)"><metadata
     id="metadata18"><rdf:RDF><cc:Work
         rdf:about=""><dc:format>image/svg+xml</dc:format><dc:type
           rdf:resource="http://purl.org/dc/dcmitype/StillImage" /></cc:Work></rdf:RDF></metadata><defs
     id="defs16" /><sodipodi:namedview
     pagecolor="#ffffff"
     bordercolor="#666666"
     borderopacity="1"
     objecttolerance="10"
     gridtolerance="10"
     guidetolerance="10"
     inkscape:pageopacity="0"
     inkscape:pageshadow="2"
     inkscape:window-width="1919"
     inkscape:window-height="1050"
     id="namedview14"
     showgrid="false"
     inkscape:zoom="1.888"
     inkscape:cx="50"
     inkscape:cy="62.5"
     inkscape:window-x="0"
     inkscape:window-y="0"
     inkscape:window-maximized="0"
     inkscape:current-layer="svg12" /><path
     d="M83.333,46.667H60C60,54.021,54.021,60,46.667,60v23.332c0,3.666,3.001,6.667,6.667,6.667h29.999  c3.665,0,6.667-3.001,6.667-6.667V53.333C90,49.668,86.998,46.667,83.333,46.667z M68.334,78.333l-10-10l4.713-4.714l5.287,5.287  l8.619-8.62L81.667,65L68.334,78.333z"
     id="path2" /><path
     d="M20,80.282V60c0-1.843,1.491-3.334,3.333-3.334c1.839,0,3.333,1.491,3.333,3.334v9.83l9.049,2.585  c1.761,0.504,2.91,2.389,2.552,4.186l-2.679,13.398H20.286l-9.31-9.31c-1.302-1.302-1.302-3.415,0-4.714  c1.302-1.302,3.412-1.302,4.713,0L20,80.282z"
     id="path4" /><path
     d="M46.667,10.001H16.668c-3.666,0-6.667,3.001-6.667,6.667v30c0,3.434,2.643,6.25,5.989,6.598  C17.82,51.272,20.421,50,23.333,50c2.944,0,5.568,1.302,7.399,3.333h15.936c3.666,0,6.667-3.001,6.667-6.666v-30  C53.334,13.002,50.333,10.001,46.667,10.001z M43.334,38.62l-4.713,4.713l-6.953-6.953l-6.953,6.953l-4.713-4.713l6.953-6.953  l-6.953-6.953l4.713-4.713l6.953,6.953l6.953-6.953l4.713,4.713l-6.953,6.953L43.334,38.62z"
     id="path6" /></svg>