<?xml version="1.0" encoding="UTF-8" standalone="no"?>
<svg
   xmlns:dc="http://purl.org/dc/elements/1.1/"
   xmlns:cc="http://creativecommons.org/ns#"
   xmlns:rdf="http://www.w3.org/1999/02/22-rdf-syntax-ns#"
   xmlns:svg="http://www.w3.org/2000/svg"
   xmlns="http://www.w3.org/2000/svg"
   xmlns:sodipodi="http://sodipodi.sourceforge.net/DTD/sodipodi-0.dtd"
   xmlns:inkscape="http://www.inkscape.org/namespaces/inkscape"
   version="1.1"
   x="0px"
   y="0px"
   viewBox="0 0 128 160"
   style="enable-background:new 0 0 128 128;"
   xml:space="preserve"
   id="svg28"
   sodipodi:docname="forum.svg"
   inkscape:version="0.92.3 (2405546, 2018-03-11)"><metadata
     id="metadata34"><rdf:RDF><cc:Work
         rdf:about=""><dc:format>image/svg+xml</dc:format><dc:type
           rdf:resource="http://purl.org/dc/dcmitype/StillImage" /></cc:Work></rdf:RDF></metadata><defs
     id="defs32" /><sodipodi:namedview
     pagecolor="#ffffff"
     bordercolor="#666666"
     borderopacity="1"
     objecttolerance="10"
     gridtolerance="10"
     guidetolerance="10"
     inkscape:pageopacity="0"
     inkscape:pageshadow="2"
     inkscape:window-width="640"
     inkscape:window-height="480"
     id="namedview30"
     showgrid="false"
     inkscape:zoom="1.475"
     inkscape:cx="64"
     inkscape:cy="80"
     inkscape:window-x="0"
     inkscape:window-y="0"
     inkscape:window-maximized="0"
     inkscape:current-layer="svg28" /><g
     id="g4"><path
       d="M17.4990234,31c0.7870483,0,1.5566406-0.0620117,2.3163452-0.1514282l12.4902954,3.9111938   C32.8242188,34.9229126,33.3056641,35,33.7382813,35c1.5975952,0,2.5303345-1.0532227,2.1923828-2.7412109l-1.5439453-12.7460938   C34.7733765,18.230957,35,16.8900757,35,15.5C35,6.9399414,27.164978,0,17.4990234,0C7.8330078,0,0,6.9399414,0,15.5   C0,24.0604858,7.8330078,31,17.4990234,31z"
       id="path2" /></g><g
     id="g8"><path
       d="M38.5498047,97.8978882C38.0458984,97.3187866,37.3212891,97,36.5136719,97   c-0.4091797,0-0.8349609,0.0795898-1.1983032,0.2128906l-9.9541016,2.7407227   c-1.9198608-1.1142578-4.1044922-1.7007446-6.3387451-1.7007446c-2.7452393,0-5.3662109,0.894104-7.3789063,2.5181274   c-0.7520142,0.6073608-1.4366455,1.2860718-2.0440063,2.0272827c-1.6268921,0.3477173-3.0498047,0.8721313-4.2363281,1.5615845   c-5.2392578,3.0541992-6.9306641,9.8828125-3.7714844,15.2211914c1.9735718,3.3413086,6.1317749,5.4775391,10.5546875,5.3364258   C14.7177734,126.9633789,17.4276733,128,20.2061157,128c3.1952515,0,5.625-1.3978882,6.9452515-2.3857422   c0.1591187,0.0151367,0.3164063,0.03125,0.453125,0.0449219c1.0214844,0.1035156,1.5723267,0.137207,1.9072266,0.1079102   c1.7470703-0.1630859,3.5009766-0.7666016,5.0702515-1.7451172c5.1083984-3.1698608,6.9512329-10.5698853,4.0234985-16.1586914   c-0.1552734-0.2958984-0.3339844-0.5913086-0.5498047-0.8964844L39.25,101.0546875   C39.4492188,99.7636719,39.2020874,98.6425781,38.5498047,97.8978882z"
       id="path6" /></g><g
     id="g12"><path
       d="M92.0059204,30.9159546L92,39.2603149C92,40.8286133,92.7919922,42,94.3983765,42   c0.3936157,0,0.835022-0.0698242,1.3251953-0.2211914L112.0106812,32H120c4.4003906,0,8-3.6000977,8-8V8   c0-4.3999023-3.5996094-8-8-8H96c-4.4003906,0-8,3.6000977-8,8v16C88,26.9462891,89.6181641,29.527771,92.0059204,30.9159546z"
       id="path10" /></g><g
     id="g16"><path
       d="M108,128h12c4.4003906,0,8-3.6000977,8-8V94c0-4.3999023-3.5996094-8-8-8h-12   c-2.9462891,0-5.5264282,1.6176758-6.914978,4.0043945L93.7089844,90c-1.9522095,0.0268555-3.2734985,1.171875-2.4696655,3.4580078   L100,106.7836914V120C100,124.3999023,103.5996094,128,108,128z"
       id="path14" /></g><g
     id="g22"><g
       id="g20"><path
         d="M44,95h36c4.4003906,0,8-3.6000977,8-8V43c0-4.3999023-3.5996094-8-8-8H44c-4.4003906,0-8,3.6000977-8,8v44    C36,91.3999023,39.5996094,95,44,95z M50,47h24c1.1044922,0,2,0.8955078,2,2s-0.8955078,2-2,2H50c-1.1044922,0-2-0.8955078-2-2    S48.8955078,47,50,47z M50,55h24c1.1044922,0,2,0.8955078,2,2s-0.8955078,2-2,2H50c-1.1044922,0-2-0.8955078-2-2    S48.8955078,55,50,55z M50,63h24c1.1044922,0,2,0.8955078,2,2s-0.8955078,2-2,2H50c-1.1044922,0-2-0.8955078-2-2    S48.8955078,63,50,63z M50,71h24c1.1044922,0,2,0.8955078,2,2s-0.8955078,2-2,2H50c-1.1044922,0-2-0.8955078-2-2    S48.8955078,71,50,71z M50,79h24c1.1044922,0,2,0.8955078,2,2s-0.8955078,2-2,2H50c-1.1044922,0-2-0.8955078-2-2    S48.8955078,79,50,79z"
         id="path18" /></g></g></svg>