<?xml version="1.0" encoding="UTF-8" standalone="no"?>
<svg
   xmlns:dc="http://purl.org/dc/elements/1.1/"
   xmlns:cc="http://creativecommons.org/ns#"
   xmlns:rdf="http://www.w3.org/1999/02/22-rdf-syntax-ns#"
   xmlns:svg="http://www.w3.org/2000/svg"
   xmlns="http://www.w3.org/2000/svg"
   xmlns:sodipodi="http://sodipodi.sourceforge.net/DTD/sodipodi-0.dtd"
   xmlns:inkscape="http://www.inkscape.org/namespaces/inkscape"
   data-name="Слой 1"
   viewBox="0 0 128 160"
   x="0px"
   y="0px"
   version="1.1"
   id="svg18"
   sodipodi:docname="mindmap.svg"
   inkscape:version="0.92.3 (2405546, 2018-03-11)">
  <metadata
     id="metadata24">
    <rdf:RDF>
      <cc:Work
         rdf:about="">
        <dc:format>image/svg+xml</dc:format>
        <dc:type
           rdf:resource="http://purl.org/dc/dcmitype/StillImage" />
      </cc:Work>
    </rdf:RDF>
  </metadata>
  <defs
     id="defs22" />
  <sodipodi:namedview
     pagecolor="#ffffff"
     bordercolor="#666666"
     borderopacity="1"
     objecttolerance="10"
     gridtolerance="10"
     guidetolerance="10"
     inkscape:pageopacity="0"
     inkscape:pageshadow="2"
     inkscape:window-width="640"
     inkscape:window-height="480"
     id="namedview20"
     showgrid="false"
     inkscape:zoom="1.475"
     inkscape:cx="64"
     inkscape:cy="80"
     inkscape:window-x="0"
     inkscape:window-y="0"
     inkscape:window-maximized="0"
     inkscape:current-layer="svg18" />
  <title
     id="title2">ic_mind_map</title>
  <path
     d="M98,20h28a2,2,0,0,0,2-2V2a2,2,0,0,0-2-2H98a2,2,0,0,0-2,2V8H90a10,10,0,0,0-9.8,8H47.8A10,10,0,0,0,38,8H32V2a2,2,0,0,0-2-2H2A2,2,0,0,0,0,2V18a2,2,0,0,0,2,2H30a2,2,0,0,0,2-2V12h6a6,6,0,0,1,5.65,4H42a2,2,0,0,0-2,2V34a2,2,0,0,0,2,2h1.65A6,6,0,0,1,38,40H32V34a2,2,0,0,0-2-2H2a2,2,0,0,0-2,2V50a2,2,0,0,0,2,2H30a2,2,0,0,0,2-2V44h6a10,10,0,0,0,9.8-8H62v4.14A15.06,15.06,0,0,0,49,55a14.84,14.84,0,0,0,2.63,8.41A26.89,26.89,0,0,1,55,70v8s0,.09,0,.14a1.92,1.92,0,0,0,0,.22,1.6,1.6,0,0,0,.05.21s0,.09,0,.13l3,8A2,2,0,0,0,60,88h2v4H47.8A10,10,0,0,0,38,84H32V78a2,2,0,0,0-2-2H2a2,2,0,0,0-2,2V94a2,2,0,0,0,2,2H30a2,2,0,0,0,2-2V88h6a6,6,0,0,1,5.65,4H42a2,2,0,0,0-2,2v16a2,2,0,0,0,2,2h1.65A6,6,0,0,1,38,116H32v-6a2,2,0,0,0-2-2H2a2,2,0,0,0-2,2v16a2,2,0,0,0,2,2H30a2,2,0,0,0,2-2v-6h6a10,10,0,0,0,9.8-8H80.2a10,10,0,0,0,9.8,8h6v6a2,2,0,0,0,2,2h28a2,2,0,0,0,2-2V110a2,2,0,0,0-2-2H98a2,2,0,0,0-2,2v6H90a6,6,0,0,1-5.65-4H86a2,2,0,0,0,2-2V94a2,2,0,0,0-2-2H84.35A6,6,0,0,1,90,88h6v6a2,2,0,0,0,2,2h28a2,2,0,0,0,2-2V78a2,2,0,0,0-2-2H98a2,2,0,0,0-2,2v6H90a10,10,0,0,0-9.8,8H66V88h2a2,2,0,0,0,1.87-1.3l3-8s0-.09,0-.13a1.6,1.6,0,0,0,0-.21,1.92,1.92,0,0,0,0-.22s0-.09,0-.14V70a1.11,1.11,0,0,0,0-.19,20.57,20.57,0,0,1,3-5.91A14.92,14.92,0,0,0,66,40.15V36H80.2A10,10,0,0,0,90,44h6v6a2,2,0,0,0,2,2h28a2,2,0,0,0,2-2V34a2,2,0,0,0-2-2H98a2,2,0,0,0-2,2v6H90a6,6,0,0,1-5.65-4H86a2,2,0,0,0,2-2V18a2,2,0,0,0-2-2H84.35A6,6,0,0,1,90,12h6v6A2,2,0,0,0,98,20ZM28,16H4V4H28Zm0,32H4V36H28Zm0,44H4V80H28Zm0,32H4V112H28Zm72-12h24v12H100Zm0-32h24V92H100ZM84,96v12H44V96ZM69,76H59V72H69Zm-2.39,8H61.39l-1.5-4h8.22ZM75,55a10.78,10.78,0,0,1-2.18,6.54A24.29,24.29,0,0,0,69.35,68H58.54A30.91,30.91,0,0,0,55,61.15,10.89,10.89,0,0,1,53,55,11.17,11.17,0,0,1,63.66,44,11,11,0,0,1,75,55Zm25-19h24V48H100ZM44,32V20H84V32ZM100,4h24V16H100Z"
     id="path4" />
  <path
     d="M37,71.25a2,2,0,0,0,1.93,1.48,1.81,1.81,0,0,0,.52-.07l3.87-1a2,2,0,0,0-1-3.87l-3.86,1A2,2,0,0,0,37,71.25Z"
     id="path6" />
  <path
     d="M91.05,56.75a2,2,0,0,0-2.45-1.41l-3.87,1a2,2,0,0,0,.52,3.94,2.4,2.4,0,0,0,.52-.07l3.86-1A2,2,0,0,0,91.05,56.75Z"
     id="path8" />
  <path
     d="M89.63,68.8l-3.86-1a2,2,0,0,0-1,3.87l3.87,1a1.81,1.81,0,0,0,.52.07,2,2,0,0,0,.51-3.93Z"
     id="path10" />
  <path
     d="M38.37,59.2l3.86,1a2.4,2.4,0,0,0,.52.07,2,2,0,0,0,.52-3.94l-3.87-1a2,2,0,1,0-1,3.86Z"
     id="path12" />
</svg>
