<?xml version="1.0" encoding="UTF-8" standalone="no"?>
<svg
   xmlns:dc="http://purl.org/dc/elements/1.1/"
   xmlns:cc="http://creativecommons.org/ns#"
   xmlns:rdf="http://www.w3.org/1999/02/22-rdf-syntax-ns#"
   xmlns:svg="http://www.w3.org/2000/svg"
   xmlns="http://www.w3.org/2000/svg"
   xmlns:sodipodi="http://sodipodi.sourceforge.net/DTD/sodipodi-0.dtd"
   xmlns:inkscape="http://www.inkscape.org/namespaces/inkscape"
   version="1.1"
   x="0px"
   y="0px"
   viewBox="0 0 66 82.5"
   enable-background="new 0 0 66 66"
   xml:space="preserve"
   id="svg28"
   sodipodi:docname="projects.svg"
   inkscape:version="0.92.3 (2405546, 2018-03-11)"><metadata
     id="metadata34"><rdf:RDF><cc:Work
         rdf:about=""><dc:format>image/svg+xml</dc:format><dc:type
           rdf:resource="http://purl.org/dc/dcmitype/StillImage" /></cc:Work></rdf:RDF></metadata><defs
     id="defs32" /><sodipodi:namedview
     pagecolor="#ffffff"
     bordercolor="#666666"
     borderopacity="1"
     objecttolerance="10"
     gridtolerance="10"
     guidetolerance="10"
     inkscape:pageopacity="0"
     inkscape:pageshadow="2"
     inkscape:window-width="640"
     inkscape:window-height="480"
     id="namedview30"
     showgrid="false"
     inkscape:zoom="2.8606061"
     inkscape:cx="33"
     inkscape:cy="41.25"
     inkscape:window-x="0"
     inkscape:window-y="0"
     inkscape:window-maximized="0"
     inkscape:current-layer="svg28" /><g
     id="g22"><path
       d="M12.4,30.6c-2,0-3.6,1.6-3.6,3.6c0,2.2,1.9,3.8,3.8,3.6c1.9-0.1,3.4-1.7,3.4-3.6C16,32.2,14.4,30.6,12.4,30.6z"
       id="path2" /><path
       d="M21.1,39.8l-0.9-1.3c0.3-0.5,0.5-1.1,0.7-1.7l1.5-0.3c0.4-0.1,0.6-0.4,0.6-0.7v-3.1c0-0.4-0.3-0.7-0.6-0.7l-1.5-0.3   c-0.2-0.6-0.4-1.1-0.7-1.7l0.9-1.3c0.2-0.3,0.2-0.7-0.1-0.9l-2.2-2.2c-0.2-0.3-0.6-0.3-0.9-0.1l-1.3,0.9c-0.5-0.3-1.1-0.5-1.7-0.7   l-0.3-1.6c-0.1-0.3-0.4-0.6-0.7-0.6h-3.1c-0.4,0-0.7,0.3-0.7,0.6l-0.3,1.5c-0.6,0.2-1.1,0.4-1.7,0.7l-1.3-0.9   c-0.3-0.2-0.7-0.2-0.9,0.1l-2.2,2.2c-0.3,0.3-0.3,0.6-0.1,0.9L4.6,30c-0.3,0.5-0.5,1.1-0.7,1.7L2.4,32c-0.4,0.1-0.6,0.4-0.6,0.7   v3.1c0,0.4,0.3,0.7,0.6,0.7l1.5,0.3c0.2,0.6,0.4,1.1,0.7,1.7l-0.9,1.3c-0.2,0.3-0.2,0.7,0.1,0.9L6,42.9c0.3,0.2,0.7,0.3,0.9,0.1   l1.3-0.9c0.5,0.3,1.1,0.5,1.7,0.7l0.3,1.5c0.1,0.4,0.4,0.6,0.7,0.6H14c0.4,0,0.7-0.3,0.7-0.6l0.3-1.5c0.6-0.2,1.2-0.4,1.7-0.7   l1.3,0.9c0.3,0.2,0.7,0.2,0.9-0.1l2.2-2.2C21.3,40.4,21.3,40.1,21.1,39.8z M12.7,39.3c-2.4,0.3-5.4-1.8-5.4-5.1   c0-2.8,2.3-5.1,5.1-5.1c2.8,0,5.1,2.3,5.1,5.1C17.5,37,15.4,39.2,12.7,39.3z"
       id="path4" /><path
       d="M33.3,21.3c2.8-0.2,4.9-2.5,4.9-5.2c0-2.9-2.3-5.2-5.2-5.2c-2.9,0-5.2,2.3-5.2,5.2C27.8,19.3,30.7,21.5,33.3,21.3z"
       id="path6" /><path
       d="M19.3,18.9l2.3,0.4c0.2,0.9,0.6,1.7,1.1,2.6l-1.3,1.9c-0.2,0.3-0.2,0.7,0.1,0.9l3,3c0.2,0.2,0.6,0.3,0.9,0.1l1.9-1.3   c0.8,0.4,1.7,0.8,2.5,1.1l0.4,2.3c0.1,0.4,0.4,0.6,0.7,0.6h4.2c0.4,0,0.7-0.3,0.7-0.6l0.4-2.3c0.9-0.3,1.7-0.6,2.5-1l1.9,1.3   c0.3,0.2,0.7,0.2,0.9-0.1l3-3c0.3-0.3,0.3-0.6,0.1-0.9l-1.3-1.9c0.5-0.8,0.8-1.7,1-2.6l2.3-0.4c0.4-0.1,0.6-0.4,0.6-0.7v-4.2   c0-0.4-0.3-0.7-0.6-0.7l-2.3-0.4c-0.2-0.9-0.6-1.7-1.1-2.5l1.3-1.9c0.2-0.3,0.2-0.7-0.1-0.9l-3-3c-0.2-0.3-0.6-0.3-0.9-0.1   l-1.9,1.3c-0.8-0.5-1.7-0.8-2.5-1.1l-0.4-2.3c-0.1-0.4-0.4-0.6-0.7-0.6h-4.2c-0.4,0-0.7,0.3-0.7,0.6l-0.4,2.3   c-0.9,0.2-1.7,0.6-2.6,1.1l-1.9-1.3c-0.3-0.2-0.7-0.2-0.9,0.1l-3,3c-0.2,0.3-0.3,0.6-0.1,0.9l1.3,1.9c-0.4,0.8-0.8,1.7-1.1,2.5   l-2.3,0.4c-0.4,0.1-0.6,0.4-0.6,0.7v4.2C18.7,18.5,19,18.8,19.3,18.9z M33,9.4c3.7,0,6.7,3,6.7,6.7c0,3.7-2.9,6.5-6.3,6.7   c-3.5,0.3-7.1-2.6-7.1-6.7C26.3,12.4,29.3,9.4,33,9.4z"
       id="path8" /><path
       d="M53.6,30.6c-2,0-3.6,1.6-3.6,3.6c0,2.5,2.4,3.9,3.8,3.6c2-0.1,3.4-1.7,3.4-3.6C57.2,32.2,55.6,30.6,53.6,30.6z"
       id="path10" /><path
       d="M63.6,32l-1.5-0.3c-0.2-0.6-0.4-1.1-0.7-1.7l0.9-1.3c0.2-0.3,0.2-0.7-0.1-0.9L60,25.6c-0.3-0.3-0.6-0.3-0.9-0.1l-1.3,0.9   c-0.5-0.3-1.1-0.5-1.7-0.7l-0.3-1.6c-0.1-0.3-0.4-0.6-0.7-0.6H52c-0.4,0-0.7,0.3-0.7,0.6L51,25.7c-0.6,0.2-1.1,0.4-1.7,0.7   l-1.3-0.9c-0.3-0.2-0.7-0.2-0.9,0.1l-2.2,2.2c-0.2,0.3-0.3,0.6-0.1,0.9l0.9,1.3c-0.3,0.5-0.5,1.1-0.7,1.7L43.5,32   c-0.3,0.1-0.6,0.4-0.6,0.7v3.1c0,0.4,0.3,0.7,0.6,0.7l1.5,0.3c0.2,0.6,0.4,1.1,0.7,1.7l-0.9,1.3c-0.2,0.3-0.2,0.7,0.1,0.9l2.2,2.2   c0.3,0.2,0.6,0.3,0.9,0.1l1.3-0.9c0.5,0.3,1.1,0.5,1.7,0.7l0.3,1.5c0.1,0.4,0.4,0.6,0.7,0.6h3.1c0.4,0,0.7-0.3,0.7-0.6l0.3-1.5   c0.6-0.2,1.1-0.4,1.7-0.7l1.3,0.9c0.3,0.2,0.7,0.2,0.9-0.1l2.2-2.2c0.3-0.3,0.3-0.6,0.1-0.9l-0.9-1.3c0.3-0.5,0.5-1.1,0.7-1.7   l1.5-0.3c0.4-0.1,0.6-0.4,0.6-0.7v-3.1C64.2,32.4,64,32.1,63.6,32z M53.6,39.4c-2.7,0-5.1-2.2-5.1-5.1c0-2.8,2.3-5.1,5.1-5.1   c2.8,0,5.1,2.3,5.1,5.1C58.7,37.2,56.3,39.4,53.6,39.4z"
       id="path12" /><path
       d="M33.1,34.5c-4,0-7.2,3.3-7.2,7.2c0,4,3.3,7.3,7.2,7.3c4,0,7.2-3.3,7.2-7.3C40.3,37.7,37.1,34.5,33.1,34.5z"
       id="path14" /><path
       d="M36.2,51.3h-6.4c-5.3,0-9.5,4.3-9.5,9.5v2.7c0,0.4,0.3,0.7,0.7,0.7H45c0.4,0,0.7-0.3,0.7-0.7v-2.7   C45.7,55.6,41.4,51.3,36.2,51.3z"
       id="path16" /><path
       d="M60.2,44.9c-0.3-0.3-0.7-0.3-1,0L56,48.2c-0.3,0.3-0.3,0.7,0,1c0.3,0.3,0.7,0.3,1,0l2-2v15.5H47.5c-0.4,0-0.7,0.3-0.7,0.7   s0.3,0.7,0.7,0.7h12.2c0.4,0,0.7-0.3,0.7-0.7V47.2l2,2c0.3,0.3,0.7,0.3,1,0c0.3-0.3,0.3-0.7,0-1L60.2,44.9z"
       id="path18" /><path
       d="M17.8,62.8H6.4V47.2l2,2c0.3,0.3,0.7,0.3,1,0c0.3-0.3,0.3-0.7,0-1l-3.2-3.2c-0.3-0.3-0.7-0.3-1,0L2,48.2   c-0.3,0.3-0.3,0.7,0,1c0.3,0.3,0.7,0.3,1,0l2-2v16.3c0,0.4,0.3,0.7,0.7,0.7h12.2c0.4,0,0.7-0.3,0.7-0.7S18.3,62.8,17.8,62.8z"
       id="path20" /></g></svg>